
country_decisions = {
	Y15_final_stand = {
		major = yes
		potential = {
			tag = Y15
			mission_completed = Y15_naval_training
			NOT = { has_country_flag = beikdugang_federation_stand }
			exists = I89
			NOT = { exists = J33 }
		}
		provinces_to_highlight = {
		    owned_by = I89
		}
		allow = {
			calc_true_if = {
				all_province = {
					country_or_subject_holds = I89
					OR = {
						region = southern_isles_region
						region = northern_isles_region
					}
				}
				amount = 25
			}
			OR = {
				NOT = { is_at_war = yes }
				war_with = I89
			}
			adm_power = 200
			dip_power = 200
			mil_power = 200
		}
		effect = {
			set_country_flag = beikdugang_federation_stand
			if = {
				limit = { 
					NOT = { treasury = 2500 }
					NOT = { num_of_loans = 1 }
				}
				add_stability = -1
				custom_tooltip = Y15_money_stab
			}
			add_treasury = -2500
			add_adm_power = -300
			add_dip_power = -300
			add_mil_power = -300
			add_country_modifier = {
				name = Y15_last_stand
				duration = 5475
			}
			form_coalition_against = I89
			if = {
				limit = {
					OR = {
						NOT = { war_with = I89 }
						offensive_war_with = I89
					}
				}
				tooltip = {
					random_known_country = {
						limit = { has_country_modifier = lake_federation_member }
						add_treasury = 100
						add_country_modifier = {
							name = Y15_last_stand
							duration = 5475
						}
						capital_scope = {
							infantry = PREV
							infantry = PREV
							infantry = PREV
							infantry = PREV
						}
						form_coalition_against = I89
						join_all_offensive_wars_of = ROOT
					}
				}
				custom_tooltip = Y15_rally_federation
				hidden_effect = {
					every_known_country = {
						limit = { has_country_modifier = lake_federation_member }
						add_treasury = 100
						add_country_modifier = {
							name = Y15_last_stand
							duration = 5475
						}
						capital_scope = {
							infantry = PREV
							infantry = PREV
							infantry = PREV
							infantry = PREV
						}
						form_coalition_against = I89
						join_all_offensive_wars_of = ROOT
					}
				}
				declare_war_with_cb = {
					who = I89
					casus_belli = cb_super_badboy
				}
			}
			else = {
				tooltip = {
					random_known_country = {
						limit = { has_country_modifier = lake_federation_member }
						add_treasury = 100
						add_country_modifier = {
							name = Y15_last_stand
							duration = 5475
						}
						capital_scope = {
							infantry = PREV
							infantry = PREV
							infantry = PREV
							infantry = PREV
						}
						form_coalition_against = I89
						join_all_defensive_wars_of = ROOT
					}
				}
				custom_tooltip = Y15_rally_federation
				hidden_effect = {
					every_known_country = {
						limit = { has_country_modifier = lake_federation_member }
						add_treasury = 100
						add_country_modifier = {
							name = Y15_last_stand
							duration = 5475
						}
						capital_scope = {
							infantry = PREV
							infantry = PREV
							infantry = PREV
							infantry = PREV
						}
						form_coalition_against = I89
						join_all_defensive_wars_of = ROOT
					}
				}
			}
			I89 = {
				random_owned_province = { 
					limit = { culture_group = triunic }
					spawn_rebels = {
						type = nationalist_rebels
						size = 3
						friend = Y15
					}
				}
				random_owned_province = { 
					limit = { culture_group = triunic }
					spawn_rebels = {
						type = nationalist_rebels
						size = 2
						friend = Y15
					}
				}
				random_owned_province = { 
					limit = { culture_group = triunic }
					spawn_rebels = {
						type = nationalist_rebels
						size = 2
						friend = Y15
					}
				}
				random_owned_province = { 
					limit = { culture_group = triunic }
					spawn_rebels = {
						type = nationalist_rebels
						size = 1
						friend = Y15
					}
				}
				random_owned_province = { 
					limit = { culture_group = triunic }
					spawn_rebels = {
						type = nationalist_rebels
						size = 1
						friend = Y15
					}
				}
			}
		}
		ai_will_do = {
			factor = 1
		}
		ai_importance = 400
	}
}