# ? <-- This is here to make sure that the encoding stays ANSI, do not remove it
namespace = eordand

country_event = { #ChangeGovernment
	id = eordand.1
	title = eordand.1.t
	desc = eordand.1.d
	picture = COURT_eventPicture
	
	is_triggered_only = yes
	
	option = {		# Despotic Monarchy
		name = "eordand.1.a"
		ai_chance = { 
			factor = 45
			modifier = {
				factor = 10
				tag = H13 
			}
			modifier = {
				factor = 2
				OR = {
					government = monarchy
				}
			}
			modifier = {
				factor = 0.01
				tag = H07
			}
		}	
		if = {
			limit = { NOT = { government = monarchy } }
			change_government = monarchy
		}
		add_government_reform = autocracy_reform
		
	}
	option = {		# Oligarchic Republic
		name = "eordand.1.b"
		ai_chance = { 
			factor = 15
			modifier = {
				factor = 2	#Having a poor ruler makes it likely they want an elective country
				OR = {
					NOT = { adm = 3 }
					NOT = { dip = 3 }
					NOT = { mil = 3 }
				}
			}
		}
		if = {
			limit = { NOT = { government = republic } }
			change_government = republic
		}
		add_government_reform = oligarchy_reform
	}
	option = {		# Merchant Republic
		name = "eordand.1.c"
		ai_chance = { 
			factor = 10 
			modifier = {
				factor = 300
				OR = {
					tag = H07 
				}
			}
		}
		if = {
			limit = { NOT = { government = republic } }
			change_government = republic
		}
		add_government_reform = merchants_reform
	}
	
	option = {		# Magocracy
		name = "eordand.1.dd"
		ai_chance = { 
			factor = 50 
			modifier = {
				factor = 1000
				OR = {
					government = theocracy
				}
			}
		}
		if = {
			limit = { NOT = { government = theocracy } }
			change_government = theocracy
		}
		add_government_reform = magocracy_reform
	}
}

country_event = { #ChangeCapital
	id = eordand.2
	title = eordand.2.t
	desc = eordand.2.d
	picture = GOLDEN_CITY_eventPicture
	
	is_triggered_only = yes
	
	option = { #Spring
		name = "eordand.2.a"
		trigger = {
				owns_core_province = 2007
		}
		ai_chance = {
			factor = 20
			modifier = {
				factor = 300
				OR = {
					tag = H01
					primary_culture = selphereg
				}
			}
		}
		2007 = { #Arakeprun
			move_capital_effect = yes
		}
		add_country_modifier = {
			name = "eordand_spring_court"
			duration = -1
		}
	}
	option = { #Summer
			name = "eordand.2.b"
			trigger = {
				owns_core_province = 2037
			}
			ai_chance = {
			factor = 20
			modifier = {
				factor = 300
				OR = {
					tag = H02
					primary_culture = caamas
					}
				}
			}
			2037 = { #Murdkather
				move_capital_effect = yes
			}
			add_country_modifier = {
				name = "eordand_summer_court"
				duration = -1
			}
	}
	option = { #Autumn Court
		name = "eordand.2.c"
		trigger = {
				owns_core_province = 2159
		}
		ai_chance = {
			factor = 20
			modifier = {
				factor = 300
				OR = {
					tag = H10
					primary_culture = tuathak
				}
			}
		}
		2159 = { #Einnsag
			move_capital_effect = yes
		}
		add_country_modifier = {
			name = "eordand_autumn_court"
			duration = -1
		}
	}
	option = { #Winter Court
		name = "eordand.2.dd"
		trigger = {
				owns_core_province = 1775
		}
		ai_chance = {
			factor = 20
			modifier = {
				factor = 300
				OR = {
					tag = H16
					primary_culture = snecboth
				}
			}
		}
			1775 = { #Gemradcurt
				move_capital_effect = yes
			}
			add_country_modifier = {
				name = "eordand_winter_court"
				duration = -1
			}
	}
	option = { #Peitar
		name = "eordand.2.e"
		trigger = {
				owns_core_province = 2049
		}
		ai_chance = {
			factor = 20
			modifier = {
				factor = 300
				OR = {
					tag = H08
					primary_culture = peitar
				}
			}
		}
			2049 = { #Pelodard
				move_capital_effect = yes
			}
			add_country_modifier = {
				name = "eordand_domandrod"
				duration = -1
			}
	}
	option = { #NoChange
		name = "eordand.2.f"
		ai_chance = {
			factor = 0.1
		}
			add_adm_power = 50
			add_dip_power = 50
			add_mil_power = 50
	} 
}

country_event = { #Fey Audience Pelodard Dead
	id = eordand.3
	title = eordand.3.t
	desc = eordand.3.d
	picture = CONQUEST_eventPicture
	
	is_triggered_only = yes
	
	option = { #UniteTheSeasons
		name = "eordand.3.a"
		ai_chance = {
			factor = 1
			modifier = {
				factor = 100
				ruler_has_personality = conqueror_personality
				ruler_has_personality = inspiring_leader_personality
				ruler_has_personality = just_personality
				ruler_has_personality = free_thinker_personality
				ruler_has_personality = intricate_web_weaver_personality
				ruler_has_personality = lawgiver_personality
				ruler_has_personality = scholar_personality
				ruler_has_personality = tactical_genius_personality
				ruler_has_personality = navigator_personality
				ruler_has_personality = naive_personality
			}
		}
		add_country_modifier = { name = "eor_pledge_to_unite_eordand" duration = 18250 }
		add_prestige = 15
		H08 = {
			clr_country_flag = eordand_pelomar_oathsworn
		}
	}
		
	option = { #ChampionofFey
		name = "eordand.3.b"
		ai_chance = {
			factor = 1
			modifier = {
				factor = 100
				ruler_has_personality = zealot_personality
				ruler_has_personality = righteous_personality
				ruler_has_personality = secretive_personality
				ruler_has_personality = incorruptible_personality
				ruler_has_personality = architectural_visionary_personality
				ruler_has_personality = industrious_personality
				ruler_has_personality = charismatic_negotiator_personality
				ruler_has_personality = martial_educator_personality
				ruler_has_personality = fierce_negotiator_personality
				ruler_has_personality = obsessive_perfectionist_personality
			}
		}
		add_country_modifier = { name = "eor_champions_of_the_fey" duration = 18250 }
		add_prestige = 15
		H08 = {
			clr_country_flag = eordand_pelomar_oathsworn
		}
	}
	option = { #Beg
		name = "eordand.3.c"
		ai_chance = {
			factor = 1
			modifier = {
				factor = 100
				ruler_has_personality = craven_personality
				ruler_has_personality = careful_personality
				ruler_has_personality = pious_personality
				ruler_has_personality = well_advised_personality
				ruler_has_personality = benevolent_personality
				ruler_has_personality = calm_personality
				ruler_has_personality = tolerant_personality
				ruler_has_personality = midas_touched_personality
				ruler_has_personality = entrepreneur_personality
				ruler_has_personality = babbling_buffoon_personality
				ruler_has_personality = drunkard_personality
			}
		}
		add_country_modifier = { name = "eor_humble" duration = 18250 }
		add_prestige = -10
		increase_legitimacy_large_effect = yes
		H08 = {
			clr_country_flag = eordand_pelomar_oathsworn
		}
	}
	option = { #StandTall
		name = "eordand.3.dd"
		ai_chance = {
			factor = 1
			modifier = {
				factor = 100
				ruler_has_personality = sinner_personality
				ruler_has_personality = cruel_personality
				ruler_has_personality = strict_personality
				ruler_has_personality = bold_fighter_personality
				ruler_has_personality = well_connected_personality
				ruler_has_personality = expansionist_personality
				ruler_has_personality = silver_tongue_personality
				ruler_has_personality = embezzler_personality
				ruler_has_personality = fertile_personality
				ruler_has_personality = greedy_personality
				ruler_has_personality = loose_lips_personality
				ruler_has_personality = malevolent_personality
			}
		}
		add_country_modifier = { name = "eor_the_apostate" duration = 18250 }
		H08 = {
			clr_country_flag = eordand_pelomar_oathsworn
		}
	}
}

country_event = { #PrepareExpedition
	id = eordand.4
	title = eordand.4.t
	desc = eordand.4.d
	picture = EXPLORERS_eventPicture
	
	is_triggered_only = yes
	
	option = {
		name = "eordand.4.a"
		add_country_modifier = { name = "eor_expedition_underway" duration = 5475}
	}
}

country_event = { #RuinExcavationFograc RuinMemory
	id = eordand.5
	title = eordand.5.t
	desc = eordand.5.d
	picture = AZTEC_PYRAMID_eventPicture
	
	is_triggered_only = yes
	
	option = {
		name = "eordand.5.a"
		2060 = {
			add_permanent_province_modifier = { name = "eor_cadhcimn_1" duration = -1 }
			change_province_name = "Cadcimn"
			add_base_tax = 2
			add_base_production = 2
			add_base_manpower = 1
			change_trade_goods = precursor_relics
		}
	}
}

country_event = { #Unearthed
	id = eordand.6
	title = eordand.6.t
	desc = eordand.6.d
	picture = IMPORTANT_STATUE_eventPicture
	
	is_triggered_only = yes
	
	option = {
		name = "eordand.6.a"
		random_list = {
			66 = {
				add_adm_power = 50
				add_dip_power = 50
				add_mil_power = 50
				add_years_of_owned_provinces_production_income = { 
					years = 5 
				} 
				2060 = {  
					add_base_production = 2 
					add_permanent_province_modifier = { name = "eor_cadcimn_5" duration = -1 } 
				} 
			}
			22 = {
				2060 = {
					add_permanent_province_modifier = { name = "eor_cadhcimn_2" duration = -1 }
				}
				add_prestige = 15
			}
			11 = {
				country_event = {
					id = eordand.7
					days = 1
				}
			}
		}
		
	}
	option = {
		name = "eordand.6.b"
		random_list = {
			66 = {
				2060 = {
					add_permanent_province_modifier = { name = "eor_cadhcimn_2" duration = -1 }
				}
				add_prestige = 15
			}
			22 = {
				2060 = {
					add_permanent_province_modifier = { name = "eor_cadhcimn_4" duration = -1 }
				}
				increase_ruler_mil_effect = yes
			}
			11 = {
				country_event = {
					id = eordand.7
					days = 1
				}
			}
		}
	}
}

country_event = { #UnearthedMonster
	id = eordand.7
	title = eordand.7.t
	desc = eordand.7.d
	picture = KING_ASSASINATION_eventPicture
	
	is_triggered_only = yes
	
	option = {
		name = "eordand.7.a"
		random_list = {
			60 = {
				kill_ruler = yes
				reduce_stability_or_adm_power = yes
				2060 = {
					add_permanent_province_modifier = { name = "eor_cadcimn_3" duration = -1 }
				}
			}
			40 = {
				add_prestige = 10
				2060 = {
					add_permanent_province_modifier = { name = "eor_cadcimn_3" duration = -1 }
				}
				add_ruler_modifier = { name = "eor_monster_slayer" duration = -1 }
			}
		}
	}	
}

country_event = { #Damestear
	id = eordand.8
	title = eordand.8.t
	desc = eordand.8.d
	picture = COMET_SIGHTED_eventPicture
	
	is_triggered_only = yes
	
	option = {
		name = "eordand.8.a"
		2009 = {
			change_trade_goods = damestear
		}
		
	}
}

country_event = { #PelomarOath
	id = eordand.9
	title = eordand.9.t
	desc = eordand.9.d
	picture = GREAT_MAN_eventPicture
	
	is_triggered_only = no
	fire_only_once = yes
	
	trigger = {
		tag = H08
		AND = {
			is_year = 1444
			NOT = { is_year = 1445 }
		}
	}
	
	option = {
		name = "eordand.9.a"
		if = {
			limit = {
				has_country_flag = eordand_pelomar_oathsworn
			}
			add_country_modifier = { name = "eor_champions_of_the_fey" duration = 18250 }
		}
	}
}

country_event = { #ColltinPurchase
	id = eordand.10
	title = eordand.10.t
	desc = eordand.10.d
	picture = DARK_FOREST_eventPicture
	
	is_triggered_only = yes
	fire_only_once = yes
	
	option = { #OfferPurchase
		name = "eordand.10.a"
		H06 = {
			country_event = {
				id = eordand.11
				days = 15
			}
		}
	}
	option = { #Demand
		name = "eordand.10.b"
		H06 = {
			country_event = {
				id = eordand.12
				days = 15
			}
		}
	}
	option = { #GiveUpClaim
		name = "eordand.10.c"
		add_prestige = -5
		2039 = {
			remove_claim = ROOT 
		}
	}
}

country_event = { #ColltinSidparOffer
	id = eordand.11
	title = eordand.11.t
	desc = eordand.11.d
	picture = DARK_FOREST_eventPicture
	
	is_triggered_only = yes
	fire_only_once = yes
	
	option = { #Accept
		name = "eordand.11.a"
		ai_chance = { 
			factor = 75
			modifier = {
				factor = 10
				NOT = {
					years_of_income = 1
				}
			}
			modifier = {
				factor = 2
				OR = {
					marriage_with = H08
				}
			}
			modifier = {
				factor = 0.5
				army_strength = {
					who = H08
					value = 1.0
				}
			}
		}
		H08 = {
			country_event = {
				id = eordand.13
				days = 15
			}
		}
	}
	option = { #Refuse
		name = "eordand.11.b"
		ai_chance = {
			factor = 25
			modifier = {
				factor = 2
				army_strength = {
					who = H08
					value = 1.0
				}
			}
		}
		H08 = {
			country_event = {
				id = eordand.14
				days = 15
			}
		}
	}
}

country_event = { #ColltinSidparDemand
	id = eordand.12
	title = eordand.12.t
	desc = eordand.12.d
	picture = DARK_FOREST_eventPicture
	
	is_triggered_only = yes
	fire_only_once = yes
	
	option = { #AcceptDemand
		name = "eordand.12.a"
		ai_chance = {
			factor = 35
			modifier = {
				factor = 5
				NOT = {
					army_strength = {
						who = H08
						value = 1
					}
				}
			}
			modifier = {
				factor = 2
				NOT = {
					prestige = 35
				}
			}
			modifier = {
				factor = 3
				NOT = {
					prestige = H08
				}
			}
		}
		H08 = {
			country_event = {
				id = eordand.15
				days = 15
			}
		}
	}
	option = { #DenyDemand
		name = "eordand.12.b"
		ai_chance = {
			factor = 65
			modifier = {
				factor = 2
				army_strength = {
					who = H08
					value = 1.25
				}
			}
			modifier = {
				factor = 1.25
				prestige = 36
			}
		}
		H08 = {
			country_event = {
				id = eordand.16
				days = 15
			}
		}
	}
}

country_event = { #ColltinOfferAccepted
	id = eordand.13
	title = eordand.13.t
	desc = eordand.13.d
	picture = DARK_FOREST_eventPicture
	
	is_triggered_only = yes
	fire_only_once = yes
	
	option = {
		name = "eordand.13.a"
		2039 = {
			cede_province = H08
			add_core = H08
			remove_core = H06
		}
		dearktir_area = {
			add_permanent_claim = H06
		}
		H08 = {
			add_dip_power = -50
		}
	}
}

country_event = { #ColltinOfferRefused
	id = eordand.14
	title = eordand.14.t
	desc = eordand.14.d
	picture = DARK_FOREST_eventPicture
	
	is_triggered_only = yes
	fire_only_once = yes
	
	option = {
		name = "eordand.14.a"
		add_opinion = {
			who = H06
			modifier = eordand_colltin_offer_refused
		}
		reverse_add_opinion = {
			who = H06
			modifier = eordand_colltin_offer_refused
		}
	}
}

country_event = { #ColltinDemandAccepted
	id = eordand.15
	title = eordand.15.t
	desc = eordand.15.d
	picture = DARK_FOREST_eventPicture
	
	is_triggered_only = yes
	fire_only_once = yes
	
	option = {
		name = "eordand.15.a"
		2039 = {
			cede_province = H08
			add_core = H08
			remove_core = H06
		}
		reverse_add_opinion = {
			who = H06
			modifier = eordand_colltin_demand
		}
		add_trust = {
			who = H06
			value = -10
		}
	}
}

country_event = { #ColltinDemandRefused
	id = eordand.16
	title = eordand.16.t
	desc = eordand.16.d
	picture = DARK_FOREST_eventPicture
	
	is_triggered_only = yes
	fire_only_once = yes
	
	option = {
		name = "eordand.16.a"
		add_casus_belli = {
			target = H06
			type = cb_border_war
			months = 120
		}
		add_opinion = {
			who = H06
			modifier = eordand_colltin_demand
		}
		reverse_add_opinion = {
			who = H06
			modifier = eordand_colltin_demand
		}
		add_trust = {
			who = H06
			value = -10
			mutual = yes
		}
	}
}

country_event = { #Praisegranting
	id = eordand.17
	title = eordand.17.t
	desc = eordand.17.d
	picture = LOADING_SHIP_eventPicture
	
	is_triggered_only = yes
	
	immediate = {
		hidden_effect = {
			random_known_country = {
				limit = {
					AND = {
						capital_scope = {
							continent = europe
						}
						num_of_light_ship = 3
					}
				}
				set_country_flag = tuathak_praisegranting
			}
		}
	}
	
	option = { #WelcomeCannoriansWarmly
		name = "eordand.17.a"
		
		random_known_country = {
			limit = {
				AND = {
					capital_scope = {
						continent = europe
					}
					num_of_light_ship = 3
					has_country_flag = tuathak_praisegranting
				}
			}
			add_opinion = {
				who = ROOT
				modifier = eordand_praisegranting_warm_welcome
			}
		}
		ROOT = {
			add_dip_power = 200		
		}
	}
	option = { #BarterWithCannorians
		name = "eordand.17.b"
		random_known_country = {
			limit = {
				AND = {
					capital_scope = {
						continent = europe
					}
					num_of_light_ship = 3
					has_country_flag = tuathak_praisegranting
				}
			}
			add_treasury = 100
		}
		ROOT = {
			add_treasury = -100
			add_country_modifier = { name = "tuathak_bartering_cannorian" duration = 7300 }
			capital_scope = {
					area = {
						add_next_institution_embracement = 25
					}
			}
		}
	}
	option = { #BetrayCannorians
		name = "eordand.17.c"
		
		random_known_country = {
			limit = {
				AND = {
					capital_scope = {
						continent = europe
					}
					num_of_light_ship = 3
					has_country_flag = tuathak_praisegranting
				}
			}
			country_event = { id = eordand.18 days = 1 }
		}
		random_owned_province = {
			limit = { has_port = yes }
			light_ship = ROOT
			light_ship = ROOT
			light_ship = ROOT
		}
		ROOT = {
			add_mil_power = 50
		}
	}
	option = { #Don't invite Cannorians
		name = "eordand.17.dd"
		
		random_known_country = {
			limit = {
				culture_group = eordan_ruinborn_elf
			}
			add_opinion = {
				who = ROOT
				modifier = eordand_praisegranting_counsel
			}
		}
		random_known_country = {
			limit = {
				culture_group = eordan_ruinborn_elf
			}
			add_opinion = {
				who = ROOT
				modifier = eordand_praisegranting_counsel
			}
		}
		random_known_country = {
			limit = {
				culture_group = eordan_ruinborn_elf
			}
			add_opinion = {
				who = ROOT
				modifier = eordand_praisegranting_counsel
			}
		}
		add_country_modifier = { name = "tuathak_praisegranting_counsel" duration = 9125 }
		ROOT = {
			add_dip_power = 50
		}
	}
}
country_event = { #Praisegranting Cannorians attacked
	id = eordand.18
	title = eordand.18.t
	desc = eordand.18.d
	picture = TEA_PARTY_eventPicture
	
	is_triggered_only = yes
	
	option = {
		name = "eordand.18.a"
		
		add_opinion = {
			who = FROM
			modifier = eordand_praisegranting_betrayal
		}
		add_casus_belli = {
			target = FROM
			type = cb_insult
			months = 60
		}
		add_prestige = -5
		add_sailors = -200
	}
}

country_event = { #fograc
	id = eordand.19
	title = eordand.19.t
	desc = eordand.19.d
	picture = NATIVES_LOW_eventPicture
	
	is_triggered_only = yes
	
	option = { #tolerance
		name = eordand.19.a
		trimthir_area = {
			limit = { owned_by = ROOT }
			change_culture = fograc
			add_province_modifier = { name = eord_fograc_tolerance duration = -1 }
		}
		anracmur_area = {
			limit = { owned_by = ROOT }
			change_culture = fograc
			add_province_modifier = { name = eord_fograc_tolerance duration = -1 }
		}
		fogracleak_area = {
			limit = { owned_by = ROOT }
			change_culture = fograc
			add_province_modifier = { name = eord_fograc_tolerance duration = -1 }
		}
	}
	option = { #religious exploitation
		name = eordand.19.b
		trimthir_area = {
			limit = { owned_by = ROOT }
			add_province_modifier = { name = eord_fograc_exploitation duration = -1 }
		}
		anracmur_area = {
			limit = { owned_by = ROOT }
			add_province_modifier = { name = eord_fograc_exploitation duration = -1 }
		}
		fogracleak_area = {
			limit = { owned_by = ROOT }
			add_province_modifier = { name = eord_fograc_exploitation duration = -1 }
		}
	}
	option = { #disregard
		name = eordand.19.c
		trimthir_area = {
			limit = { owned_by = ROOT }
			change_culture = caamas
			add_province_modifier = { name = eord_fograc_disregard duration = -1 }
		}
		anracmur_area = {
			limit = { owned_by = ROOT }
			change_culture = caamas
			add_province_modifier = { name = eord_fograc_disregard duration = -1 }
		}
		fogracleak_area = {
			limit = { owned_by = ROOT }
			change_culture = caamas
			add_province_modifier = { name = eord_fograc_disregard duration = -1 }
		}
	}
}

country_event = { #haraf qanats
	id = eordand.20
	title = eordand.20.t
	desc = eordand.20.d
	picture = FARMING_eventPicture
	
	is_triggered_only = yes
	
	option = { #repair fully
		name = eordand.20.a
		add_years_of_income = -0.25
		add_prestige = 10
		haraf_region = {
			limit = {
				owned_by = ROOT
				has_climate = arid
			}
			add_permanent_province_modifier = { name = eord_haraf_restored duration = -1 }
		}
	}
	option = { #study
		name = eordand.20.b
		add_prestige = 5
		add_country_modifier = { name = eord_haraf_study duration = 18250 }
	}
}

country_event = { #cousins son and moon
	id = eordand.21
	title = eordand.21.t
	desc = eordand.21.d
	picture = BABBLING_BAFFOON_eventPicture
	
	is_triggered_only = yes
	
	option = { #power of elven family venaan
		name = eordand.21.a
		add_country_modifier = { name = eord_venaan duration = -1 }
		largest_increase_of_elven_tolerance_effect = yes
	}
	option = { #outcasts aldan
		name = eordand.21.b
		add_country_modifier = { name = eord_aldan duration = -1 }
		largest_decrease_of_elven_tolerance_effect = yes
	}
}

country_event = { #merchant lords
	id = eordand.22
	title = eordand.22.t
	desc = eordand.22.d
	picture = PIRATES_CAPTURED_eventPicture
	
	is_triggered_only = yes
	
	option = { #integrate
		name = eordand.22.a
		add_country_modifier = { name = eord_merchant_integrate duration = -1 }
	}
	option = { #eliminate
		name = eordand.22.b
		add_country_modifier = { name = eord_merchant_eliminate duration = -1 }
	}
}

country_event = { #dragon hoard
	id = eordand.23
	title = eordand.23.t
	desc = eordand.23.d
	picture = CAVE_eventPicture
	
	is_triggered_only = yes
	
	option = { #loot
		name = eordand.23.a
		add_treasury = 1000
		add_war_exhaustion = -2
		1991 = {
			add_devastation = 75
		}
		custom_tooltip = eord_dragon_looted_tt
		hidden_effect = {
			every_owned_province = {
				limit = { culture = rzentur }
				add_province_modifier = { name = eord_dragon_hoard_looted duration = 36500 }
			}
		}
	}
	option = { #appease
		name = eordand.23.b
		add_treasury = -500
		add_prestige = -5
		add_dip_power = 50
		custom_tooltip = eord_dragon_appeased_tt
		hidden_effect = {
			every_owned_province = {
				limit = { culture = rzentur }
				add_province_modifier = { name = eord_dragon_hoard_appeased duration = 36500 }
			}
		}
	}
	option = { #do nothing
		name = eordand.23.c
		add_prestige = -10
		add_legitimacy = -10
		add_devotion = -10
		add_republican_tradition = -5
	}
	option = { #burglar
		name = eordand.23.dd
		trigger = {
			OR = {
				has_idea_group = spy_ideas
				spymaster = 1
			}
		}
		random = {
			chance = 70
			add_prestige = 10
			add_treasury = 1500
			add_adm_power = 50
			add_dip_power = 50
			add_mil_power = 50
		}
		random = {
			chance = 30
		}
	}
	option = { #marry
		name = eordand.23.e
		trigger = {
			# OR = {
				# has_idea_group = diplomatic_ideas
				# has_idea_group = influence_ideas
				# has_dip_advisor_2 = yes
			# }
		}
		random = {
			chance = 75
			add_prestige = 25
			add_adm_power = 50
			add_dip_power = 50
			add_mil_power = 50
			if = {
				limit = {
					OR = {
						government = monarchy
						government = theocracy
					}
				}
				define_heir = {
					name = "Barrsac"
					change_adm = 5
					change_dip = 5
					change_mil = 6
				}
				add_heir_personality = mage_personality
			}
			else = {
				define_advisor = {
					type = commandant
					name = "Barrsac"
					skill = 3
					location = 1191
					discount = yes
				}
			}
			custom_tooltip = eord_dragon_appeased_tt
			hidden_effect = {
				every_owned_province = {
					limit = { culture = rzentur }
					add_province_modifier = { name = eord_dragon_hoard_appeased duration = 36500 }
				}
			}
		}
		random = {
			chance = 25
		}
	}
}

country_event = { #first among ruinborn - vassal acceptance
	id = eordand.24
	title = eordand.24.t
	desc = eordand.24.d
	picture = GIFTS_eventPicture
	
	is_triggered_only = yes
	
	option = { #yes
		name = eordand.24.a
		ai_chance = {
			factor = 100
			modifier = {
				factor = 1.5
				
				H21 = { is_great_power = yes }
			}
			modifier = {
				factor = 3
				
				has_regency = yes
			}
			modifier = {
				factor = 1.2
				
				trust = {
					who = H21
					value = 60
				}
			}
			modifier = {
				factor = 1.2
				
				trust = {
					who = H21
					value = 70
				}
			}
			modifier = {
				factor = 1.2
				
				trust = {
					who = H21
					value = 85
				}
			}
		}
		hidden_effect = { set_country_flag = accepted_vassalization }
		FROM = { country_event = { id = eordand.25 days = 30 } }
	}
	option = { #no
		name = eordand.24.b
		ai_chance = { 
			factor = 100
			modifier = {
				factor = 200
				
				is_great_power = yes
			}
			modifier = {
				factor = 8
				
				total_development = FROM	
			}
			modifier = {
				factor = 1.2
				
				NOT = {
					trust = {
					who = FROM
					value = 20
					}
				}
			}
			modifier = {
				factor = 1.2
				
				NOT = {
					trust = {
					who = FROM
					value = 40
					}
				}
			}
			modifier = {
				factor = 1000
				any_ally = {
					is_great_power = yes
				}
			}
			modifier = {
				factor = 10
				any_ally = {
					army_strength = {
						who = H21
						value = 0.75
					}
				}
			}
		}
		hidden_effect = { set_country_flag = refused_vassalization }
		FROM = { country_event = { id = eordand.25 days = 30 } }
	}
}

country_event = { #first among ruinborn - do we want them
	id = eordand.25
	title = eordand.25.t
	desc = eordand.25.d
	picture = COURT_eventPicture
	
	is_triggered_only = yes
	
	option = {
		name = eordand.25.a
		ai_chance = { factor = 100 }
		trigger = { FROM = { has_country_flag = accepted_vassalization } }
		add_prestige = 10
		add_trust = {
			who = FROM
			value = 25
			mutual = yes
		}
		vassalize = FROM
		hidden_effect = { FROM = { clr_country_flag = accepted_vassalization } }
	}
	option = {
		name = eordand.25.b
		ai_chance = { factor = 0 }
		trigger = { FROM = { has_country_flag = accepted_vassalization } }
		add_trust = {
			who = FROM
			value = 25
			mutual = yes
		}
		hidden_effect = { FROM = { clr_country_flag = accepted_vassalization } }
	}
	option = {
		name = eordand.25.c
		ai_chance = { factor = 100 }
		trigger = { FROM = { has_country_flag = refused_vassalization } }
		
		add_prestige = -10
		add_opinion = {
			modifier = scornfully_insulted
			who = FROM
		}
		add_trust = {
			who = FROM
			value = -20
			mutual = yes
		}
		add_casus_belli = {
			target = FROM
			type = cb_vassalize_mission
			months = 120
		}
		hidden_effect = { FROM = { clr_country_flag = refused_vassalization } }
	}
}

country_event = { #trollsbay disputes
	id = eordand.26
	title = eordand.26.t
	desc = eordand.26.d
	picture = FUR_TRADE_eventPicture
	
	is_triggered_only = yes
	
	option = { #sarda
		name = eordand.26.a
		every_owned_province = {
			limit = { 
				region = trollsbay_region
				NOT = { culture_group = north_ruinborn_elf }
			}
			change_culture = sarda
		}
		add_country_modifier = { name = eord_sarda_trollsbay duration = 36500 }
		every_known_country = {
			limit = {
				capital_scope = {
					OR = {
						superregion = ruined_sea_superregion
						superregion = north_aelantir_superregion
						superregion = effelai_superregion
						superregion = torn_sea_superregion
					}
				}
				NOT = {
					culture_is_ruinborn = yes
				}
			}
			add_opinion = {
				who = ROOT
				modifier = opinion_persecuted_race
			}
		}
	}
	option = { #boek
		name = eordand.26.b
		every_owned_province = {
			limit = { 
				region = trollsbay_region
				NOT = {	
					NOT = { culture = sarda }
					NOT = { culture_group = north_ruinborn_elf }
				}
			}
			change_culture = boek
		}
		add_country_modifier = { name = eord_boek_trollsbay duration = 36500 }
		every_known_country = {
			limit = {
				capital_scope = {
					OR = {
						superregion = ruined_sea_superregion
						superregion = north_aelantir_superregion
						superregion = effelai_superregion
						superregion = torn_sea_superregion
					}
				}
				NOT = {
					culture_is_ruinborn = yes
				}
			}
			add_opinion = {
				who = ROOT
				modifier = opinion_persecuted_race
			}
		}
	}
	option = { #neither
		name = eordand.26.c
		every_owned_province = {
			limit = { 
				OR = {
					region = trollsbay_region
					region = sarda_region
				}
				OR = {
					culture = sarda
					culture = boek
				}
			}
			add_province_modifier = { name = eord_annoyed_dispute duration = 18250 }
		}
		add_country_modifier = { name = eord_grateful_colonists duration = 36500 }
	}
}

country_event = { #armonadh mines
	id = eordand.27
	title = eordand.27.t
	desc = eordand.27.d
	picture = TRADE_GOODS_METALS_AND_MINING_EQUIPENT_eventPicture
	
	is_triggered_only = yes
	
	option = { #prospect iron
		name = eordand.27.a
		add_years_of_income = -1
		armonadh_area = {
			add_base_production = 2
			random_list = {
				66 = {
					if = {
						limit = {
							OR = {
								trade_goods = iron
								trade_goods = copper
								trade_goods = gold
								trade_goods = gems
							}
						}
						add_base_production = 1
					}
					else = {
						change_trade_goods = iron
					}
				}
				33 = { }
			}
		}
	}
	option = { #general prospecting
		name = eordand.27.b
		add_years_of_income = -0.75
		armonadh_area = {
			add_base_production = 1
			random_list = {
				50 = {
					if = {
						limit = { 
							OR = {
								trade_goods = iron
								trade_goods = copper
								trade_goods = gold
								trade_goods = gems
							}
						}
						add_base_production = 1
					}
					else = {
						random_list = {
							5 = {
								change_trade_goods = copper
							}
							4 = {
								change_trade_goods = iron
							}
							1 = {
								change_trade_goods = gold
							}
							1 = {
								change_trade_goods = gems
							}
						}
					}
				}
				40 = { }
			}
		}
	}
	option = { #nothing
		name = eordand.27.c
		add_prestige = -10
	}
}

country_event = { #gardens of grebniesth
	id = eordand.28
	title = eordand.28.t
	desc = eordand.28.d
	picture = FARMING_eventPicture
	
	is_triggered_only = yes
	
	trigger = { has_country_flag = eord_gardens }
	
	option = {
		name = eordand.28.a
		add_country_modifier = { name = eord_tulips duration = 1460 }
	}
	option = {
		name = eordand.28.b
		add_country_modifier = { name = eord_sunflowers duration = 1460 }
	}
	option = {
		name = eordand.28.c
		add_country_modifier = { name = eord_orchids duration = 1460 }
	}
	option = {
		name = eordand.28.dd
		add_country_modifier = { name = eord_roses duration = 1460 }
	}
	option = {
		name = eordand.28.ddd
		add_country_modifier = { name = eord_poppies duration = 1460 }
	}
	option = {
		name = eordand.28.e
		add_country_modifier = { name = eord_apples duration = 1460 }
	}
	option = {
		name = eordand.28.f
		add_country_modifier = { name = eord_cocoa duration = 1460 }
	}
	option = {
		name = eordand.28.g
		add_country_modifier = { name = eord_citrus duration = 1460 }
	}
	option = {
		name = eordand.28.h
		add_country_modifier = { name = eord_roots duration = 1460 }
	}
	option = {
		name = eordand.28.i
		add_country_modifier = { name = eord_effelai_maneaters duration = 1460 }
	}
	option = {
		name = eordand.28.j
		add_country_modifier = { name = eord_oak duration = 1460 }
	}
	option = {
		name = eordand.28.k
		add_country_modifier = { name = eord_mushrooms duration = 1460 }
	}
	option = {
		name = eordand.28.l
		add_country_modifier = { name = eord_succulents duration = 1460 }
	}
}

country_event = { #sunken city
	id = eordand.29
	title = eordand.29.t
	desc = eordand.29.d
	picture = LAKE_TREASURE_eventPicture
	
	is_triggered_only = yes
	
	trigger = { has_country_flag = eord_sunken_city }
	
	option = {
		name = eordand.29.a
		add_country_modifier = { name = eordand_river_barges duration = 1460 }
	}
	option = {
		name = eordand.29.b
		add_treasury = 100
		add_prestige = 10
		add_adm_power = 50
		add_dip_power = 50
		add_mil_power = 50
	}
	option = {
		name = eordand.29.c
		add_country_modifier = { name = eordand_naval_reforms duration = 1460 }
	}
	option = {
		name = eordand.29.dd
		add_country_modifier = { name = eord_naval_supremacy duration = 1460 }
	}
}

country_event = { #dracball reclaimed
	id = eordand.30
	title = eordand.30.t
	desc = eordand.30.d
	picture = SWORD_OF_OSMAN_eventPicture
	
	is_triggered_only = yes
	
	trigger = { has_country_flag = eord_dracball }
	
	option = {
		name = eordand.30.a
		change_mil = 2
		add_ruler_modifier = { name = eord_dracball_used duration = -1 }
	}
	option = {
		name = eordand.30.b
		add_prestige = -10
		add_ruler_modifier = { name = eord_resist_dracball duration = -1 }
	}
	option = {
		name = eordand.30.c
		add_treasury = -50
		add_prestige = -5
		add_ruler_modifier = { name = eord_champion duration = -1 }
	}
}

country_event = { #winters clemency
	id = eordand.31
	title = eordand.31.t
	desc = eordand.31.d
	picture = FEAST_eventPicture
	
	is_triggered_only = yes
	
	trigger = { has_country_flag = eord_winters_clemency }
	
	option = {
		name = eordand.31.a
		add_country_modifier = { name = eord_midwinter_solstice duration = 1460 }
		every_ally = {
			add_opinion = {
				who = ROOT
				modifier = eordand_winter_solstice
			}
			reverse_add_opinion = {
				who = ROOT
				modifier = eordand_winter_solstice
			}
		}
		every_subject_country = {
			add_opinion = {
				who = ROOT
				modifier = eordand_winter_solstice
			}
			reverse_add_opinion = {
				who = ROOT
				modifier = eordand_winter_solstice
			}
		}
	}
	option = {
		name = eordand.31.b
		add_country_modifier = { name = eord_collath duration = 1460 }
		random_list = {
			1 = {
				add_adm_power = 50
			}
			1 = {
				add_dip_power = 50
			}
			1 = {
				add_mil_power = 50
			}
		}
	}
	option = {
		name = eordand.31.c
		add_country_modifier = { name = eord_alms duration = 1460 }
	}
	option = {
		name = eordand.31.dd
		add_country_modifier = { name = eord_hibernation duration = 1460 }
	}
}

country_event = { #antlered king
	id = eordand.32
	title = eordand.32.t
	desc = eordand.32.d
	picture = GREAT_MAN_eventPicture
	
	is_triggered_only = yes
	
	trigger = { has_country_flag = eord_antlered_king }
	
	option = {
		name = eordand.32.a
		add_estate_loyalty = {
            estate = all
            loyalty = 5
            short = yes
        }
		add_country_modifier = { name = eord_grand_audience duration = 1460 }
	}
	option = {
		name = eordand.32.b
		take_estate_land_share_medium = { estate = all }
		add_country_modifier = { name = eord_demand_oaths duration = 1460 }
	}
	option = {
		name = eordand.32.c
		add_war_exhaustion = -2
		add_country_modifier = { name = eord_antlered_tournament duration = 1460 }
	}
}

country_event = { #dalairey wastes expedition
	id = eordand.33
	title = eordand.33.t
	desc = eordand.33.d
	picture = MULTI_RACIAL_MERC_eventPicture
	
	is_triggered_only = yes
	
	option = { #send prof eordellonian/vernal expeditionaries
		name = eordand.33.a
		add_adm_power = -50
		add_dip_power = -50
		add_mil_power = -50
		add_manpower = -2
		hidden_effect = {
			country_event = { id = eordand.34 days = 100 }
			set_country_flag = eord_expedition
		}
	}
	option = { #hire adventurers
		name = eordand.33.b
		trigger = {
			estate_loyalty = {
				estate = estate_adventurers
				loyalty = 30
			}
		}
		add_treasury = -1000
		add_estate_loyalty = {
			estate = estate_adventurers
			loyalty = 10
		}
		hidden_effect = {
			country_event = { id = eordand.34 days = 100 }
			set_country_flag = eord_adventurers
		}
	}
	option = { #dont send expedition you pansy
		name = eordand.33.c
		add_prestige = -5
		add_country_modifier = { name = eord_no_dalairey_wastes duration = -1 }
	}
}

country_event = { #dalairey wastes expedition 2
	id = eordand.34
	title = eordand.34.t
	desc = eordand.34.d
	picture = SIERRA_DE_LA_PLATA_eventPicture
	
	is_triggered_only = yes
	
	option = { #dig deeper
		name = eordand.34.a
		add_treasury = 20
		add_prestige = 5
		add_manpower = -0.75
		hidden_effect = {
			country_event = { id = eordand.35 days = 125 }
			set_country_flag = eord_dalaire_dig
		}
	}
	option = { #move on
		name = eordand.34.b
		add_treasury = 20
		add_prestige = 5
		add_manpower = -0.5
		hidden_effect = {
			country_event = { id = eordand.36 days = 125 }
			set_country_flag = eord_dalaire_blizzard
		}
	}
	option = { #go back
		name = eordand.34.c
		add_treasury = 20
		add_prestige = -5
	}
}

country_event = { #dalairey digging deeper
	id = eordand.35
	title = eordand.35.t
	desc = eordand.35.d
	picture = GUARDED_TREASURE_eventPicture
	
	is_triggered_only = yes
	
	option = { #dismantle wards
		name = eordand.35.a
		add_adm_power = -35
		add_dip_power = -35
		add_mil_power = -35
		hidden_effect = {
			if = {
				limit = { has_country_flag = eord_expedition }
				random_list = {
					1 = { #success
						country_event = { id = eordand.37 days = 150 }
						add_prestige = 5
						add_estate_loyalty = {
							estate = estate_mages
							loyalty = 5
						}
					}
					1 = { #failure
						country_event = { id = eordand.38 days = 150 }
					}
				}
			}
			else = {
				random_list = {
					1 = { #success
						country_event = { id = eordand.37 days = 150 }
						add_prestige = 5
						add_estate_loyalty = {
							estate = estate_mages
							loyalty = 5
						}
					}
					4 = { #failure
						country_event = { id = eordand.38 days = 150 }
					}
				}
			}
		}
	}
	option = { #dig through
		name = eordand.35.b
		add_manpower = -1
		hidden_effect = {
			if = {
				limit = { has_country_flag = eord_adventurers }
				random_list = {
					1 = { #success
						country_event = { id = eordand.37 days = 200 }
					}
					1 = { #failure
						country_event = { id = eordand.38 days = 200 }
					}
				}
			}
			else = {
				random_list = {
					1 = { #success
						country_event = { id = eordand.37 days = 200 }
					}
					4 = { #failure
						country_event = { id = eordand.38 days = 200 }
					}
				}
			}
		}
	}
}

country_event = { #dalairey snowstorm
	id = eordand.36
	title = eordand.36.t
	desc = eordand.36.d
	picture = DESERT_CARAVAN_eventPicture
	
	is_triggered_only = yes
	
	option = { #wait
		name = eordand.36.a
		add_manpower = -0.5
		add_treasury = -100
		hidden_effect = {
			country_event = { id = eordand.37 days = 200 }
		}
	}
	option = { #rush
		name = eordand.36.b
		add_manpower = -1.5
		add_legitimacy = -10
		add_devotion = -10
		add_republican_tradition = -5
		hidden_effect = {
			country_event = { id = eordand.37 days = 100 }
		}
	}
	option = {
		name = eordand.36.c
		trigger = {
			religion = winter_court
		}
		add_adm_power = -10
		add_dip_power = -10
		add_mil_power = -10
		hidden_effect = {
			country_event = { id = eordand.37 days = 100 }
		}
	}
}

country_event = { #success
	id = eordand.37
	title = eordand.37.t
	desc = {
		trigger = { has_country_flag = eord_dalaire_dig }
		desc = "eordand.37.1"
	}
	desc = {
		trigger = { has_country_flag = eord_dalaire_blizzard }
		desc = "eordand.37.2"
	}
	picture = INCAN_GODS_eventPicture
	
	is_triggered_only = yes
	
	option = { #statue
		name = eordand.37.a
		trigger = { has_country_flag = eord_dalaire_dig }
		add_stability = -1
		add_country_modifier = { name = eord_dalaire_study_ancient_relics duration = 9125 }
		hidden_effect = {
			clr_country_flag = eord_dalaire_dig
			clr_country_flag = eord_adventurers
			clr_country_flag = eord_expedition
		}
	}
	option = { #cache
		name = eordand.37.b
		trigger = { has_country_flag = eord_dalaire_blizzard }
		add_years_of_income = 5
		add_stability = -1
		add_country_modifier = { name = eord_cursed_treasure duration = 9125 }
		hidden_effect = {
			clr_country_flag = eord_dalaire_blizzard
			clr_country_flag = eord_adventurers
			clr_country_flag = eord_expedition
		}
	}
}

country_event = { #failure
	id = eordand.38
	title = eordand.38.t
	desc = eordand.38.d
	picture = FAMINE_eventPicture
	
	is_triggered_only = yes
	
	option = {
		name = eordand.38.a
		add_stability = -2
		hidden_effect = {
			clr_country_flag = eord_dalaire_dig
			clr_country_flag = eord_adventurers
			clr_country_flag = eord_expedition
		}
	}
}

country_event = { #familiar forest
	id = eordand.39
	title = eordand.39.t
	desc = eordand.39.d
	picture = FEYFOREST_eventPicture
	
	is_triggered_only = yes
	
	option = { #conquer
		name = eordand.39.a
		every_known_country = {
			limit = { culture = wood_elf }
			add_opinion = {
				who = ROOT
				modifier = eordand_familiar_forest_conquest
			}
		}
		3049 = {
			add_permanent_claim = ROOT
		}
		3050 = {
			add_permanent_claim = ROOT
		}
		3063 = {
			add_permanent_claim = ROOT
		}
		3053 = {
			add_permanent_claim = ROOT
		}
		3059 = {
			add_permanent_claim = ROOT
		}
		hidden_effect = {
			set_country_flag = eordand_deepwoods_conquer
			swap_non_generic_missions = yes
		}
	}
	option = { #ally
		name = eordand.39.b
		largest_increase_of_elven_tolerance_effect = yes
		every_known_country = {
			limit = { culture = wood_elf }
			add_opinion = {
				who = ROOT
				modifier = eordand_familiar_forest_ally
			}
		}
		if = {
			limit = { NOT = { any_country = { primary_culture = wood_elf } } }
			if = {
				limit = {
					calc_true_if = {
						deepwoods_superregion = {
							culture = wood_elf
						}
						amount = 10
					}
				}
				every_province = {
					limit = {
						superregion = deepwoods_superregion
						culture = wood_elf
						has_owner_culture = no
					}
					add_permanent_claim = ROOT
				}
			}
			else = {
				deepwoods_superregion = {
					add_permanent_claim = ROOT
				}
			}
		}
		hidden_effect = {
			set_country_flag = eordand_deepwoods_ally
			swap_non_generic_missions = yes
		}
	}
}

country_event = { #leadership of home restoration
	id = eordand.40
	title = eordand.40.t
	desc = eordand.40.d
	picture = FEYFOREST_eventPicture
	
	is_triggered_only = yes
	
	option = { #form cyranvar
		name = eordand.40.a
		trigger = { NOT = { exists = I45 } }
		
		I45 = {
			inherit = I26
			inherit = I27
			inherit = I28
			inherit = I29
			inherit = I30
			inherit = I31
			inherit = I32
			inherit = I33
			inherit = I34
			add_trust = {
				who = ROOT
				value = 25
				mutual = yes
			}
			add_opinion = {
				who = ROOT
				modifier = eord_reformed_cyranvar
			}
			reverse_add_opinion = {
				who = ROOT
				modifier = eord_reformed_cyranvar
			}
			largest_increase_of_elven_tolerance_effect = yes
		}
		if = {
			limit = { 
				calc_true_if = {
					all_subject_country = {
						has_opinion = {
							who = ROOT
							value = 150
						}
						culture = wood_elf
					}
					amount = 4
				}
			}
			vassalize = I45
		}
	}
	option = { #preserve the glade clans
		name = eordand.40.b
		trigger = { NOT = { exists = I45 } }
		
		every_subject_country = {
			limit = { culture = wood_elf }
			add_country_modifier = { name = eord_evergreen_march duration = -1 }
		}
	}
	option = { #hold true to the evergreen pact
		name = eordand.40.c
		trigger = { exists = I45 }
		
		I45 = {
			add_trust = {
				who = ROOT
				value = 25
				mutual = yes
			}
			add_opinion = {
				who = ROOT
				modifier = eord_preserved_evergreen_pact
			}
			reverse_add_opinion = {
				who = ROOT
				modifier = eord_preserved_evergreen_pact
			}
		}
		add_country_modifier = { name = eord_sylvan_unity duration = -1 }
		largest_increase_of_elven_tolerance_effect = yes
	}
	option = { #follow the unseelie path
		name = eordand.40.dd
		trigger = { exists = I45 }
		
		declare_war_with_cb = {
			who = I45
			casus_belli = cb_restore_personal_union
		}
		reverse_add_opinion = {
			who = I45
			modifier = eord_evergreen_betrayal
		}
		add_country_modifier = { name = eord_evergreen_betrayal duration = -1 }
	}
}

country_event = { #Egstrel Glass
	id = eordand.41
	title = eordand.41.t
	desc = eordand.41.d
	picture = TRADE_GOODS_FURS_FISH_AND_SALT_eventPicture
	fire_only_once = yes
	
	trigger = {
		owns_core_province = 1987
		is_year = 1480
	}
	
	option = {
		name = eordand.41.a
		
		1987 = {
			add_base_production = 2
			change_trade_goods = glass
		}
		if = {
			limit = { tag = H17 }
			add_years_of_income = 2
		}
	}
}

country_event = { #Season
	id = eordand.42
	title = eordand.42.t
	desc = eordand.42.d
	picture = TRADE_GOODS_FURS_FISH_AND_SALT_eventPicture
	
	is_triggered_only = yes
	hidden = yes
	
	trigger = {
		OR = {
			has_country_flag = eord_gardens
			has_country_flag = eord_sunken_city
			has_country_flag = eord_winters_clemency
			has_country_flag = eord_antlered_king
		}
	}
	
	option = {
		name = eordand.42.a
		trigger = { has_country_flag = eord_gardens }
		ai_chance = { factor = 100 }
		country_event = { id = eordand.28 }
	}
	option = {
		name = eordand.42.a
		trigger = { has_country_flag = eord_sunken_city }
		ai_chance = { factor = 100 }
		country_event = { id = eordand.29 }
	}
	option = {
		name = eordand.42.a
		trigger = { has_country_flag = eord_winters_clemency }
		ai_chance = { factor = 100 }
		country_event = { id = eordand.31 }
	}
	option = {
		name = eordand.42.a
		trigger = { has_country_flag = eord_antlered_king }
		ai_chance = { factor = 100 }
		country_event = { id = eordand.32 }
	}
}